-------------------------------------------------------------------------------
Test set: ru.penzgtu.MainTest
-------------------------------------------------------------------------------
Tests run: 2, Failures: 0, Errors: 0, Skipped: 0, Time elapsed: 0.037 s - in ru.penzgtu.MainTest
